// Jest Snapshot v1, https://goo.gl/fbAQLP

exports[`ActionMessage should render correctly 1`] = `
<View
  style={
    Object {
      "flexDirection": "column",
      "justifyContent": "center",
      "padding": 16,
    }
  }
>
  <Text
    style={
      Array [
        Object {
          "fontWeight": "normal",
          "textAlign": "center",
        },
        Object {
          "color": "#000000",
        },
        Object {},
      ]
    }
  >
    
  </Text>
  <View
    accessible={true}
    focusable={true}
    isTVSelectable={true}
    onClick={[Function]}
    onResponderGrant={[Function]}
    onResponderMove={[Function]}
    onResponderRelease={[Function]}
    onResponderTerminate={[Function]}
    onResponderTerminationRequest={[Function]}
    onStartShouldSetResponder={[Function]}
    style={
      Object {
        "opacity": 1,
      }
    }
  >
    <Text
      style={
        Array [
          Object {
            "fontWeight": "bold",
            "textAlign": "center",
          },
          Object {
            "color": "#000000",
          },
          Object {},
        ]
      }
    >
      
    </Text>
  </View>
</View>
`;
