// Jest Snapshot v1, https://goo.gl/fbAQLP

exports[`Initials should render correctly 1`] = `
<View
  style={
    Array [
      Object {
        "alignItems": "center",
        "borderRadius": 24,
        "height": 48,
        "justifyContent": "center",
        "width": 48,
      },
      Object {
        "backgroundColor": "#167A8C",
      },
      Object {},
    ]
  }
>
  <Text
    style={
      Object {
        "color": "#ffffff",
        "fontSize": 20.8,
        "fontWeight": "800",
      }
    }
  >
    US
  </Text>
</View>
`;
